<?xml version="1.0" encoding="utf-8"?>
<svg version="1.1"
	 id="Layer_1" xmlns:ev="http://www.w3.org/2001/xml-events" xmlns:v="http://schemas.microsoft.com/visio/2003/SVGExtensions/"
	 xmlns="http://www.w3.org/2000/svg" xmlns:xlink="http://www.w3.org/1999/xlink" x="0px" y="0px" width="37.33px"
	 height="30.244px" viewBox="0 0 37.33 30.244" enable-background="new 0 0 37.33 30.244" xml:space="preserve">

<linearGradient id="anim"  fy="0">
        <stop offset="0%" stop-color="#C7C402" stop-opacity="1">
		<animate attributeName="stop-color" 
		values="#00960b;#00ba0f;#00960b" dur="500ms" repeatCount="indefinite"/>
		</stop>
    </linearGradient>
    
<g>
	<g>
		<g transform="translate(0.24,-0.24)">
			<g>
				<path fill="url(#anim)"  stroke='rgba(49,163,0,0.7)' d="M0,2.48c0-1.1,0.9-2,2-2h32.85c1.1,0,2,0.9,2,2v25.764c0,1.1-0.9,2-2,2H2c-1.1,0-2-0.9-2-2V2.48z"/>
		
			</g>
		</g>
	</g>
</g>
</svg>
